<?xml version="1.0" encoding="UTF-8"?>
<svg width="27px" height="26px" viewBox="0 0 27 26" version="1.1" xmlns="http://www.w3.org/2000/svg" xmlns:xlink="http://www.w3.org/1999/xlink">
    <!-- Generator: Sketch 64 (93537) - https://sketch.com -->
    <title>Group</title>
    <desc>Created with Sketch.</desc>
    <g id="Page-1" stroke="none" stroke-width="1" fill="none" fill-rule="evenodd">
        <g id="Desktop-Share-Item-MW---A1" transform="translate(-1278.000000, -50.000000)">
            <g id="Group-7" transform="translate(1278.624997, 50.000000)">
                <g id="Group">
                    <circle id="Oval" fill="#F2F2F2" cx="13" cy="13" r="13"></circle>
                    <path d="M18.5066502,17.8987002 C18.5066502,18.2344002 18.2345502,18.5068002 17.8988502,18.5068002 L15.0923501,18.5068002 L15.0923501,14.2417 L16.5239501,14.2417 L16.7384501,12.5797 L15.0923501,12.5797 L15.0923501,11.5182999 C15.0923501,11.0370999 15.2261501,10.7091999 15.9161501,10.7091999 L16.7963502,10.7088999 L16.7963502,9.22209985 C16.6439501,9.20199985 16.1216501,9.15669985 15.5138501,9.15669985 C14.24485,9.15669985 13.37605,9.93129988 13.37605,11.3538999 L13.37605,12.5797 L11.94085,12.5797 L11.94085,14.2417 L13.37605,14.2417 L13.37605,18.5068002 L8.10114981,18.5068002 C7.76544979,18.5068002 7.49334978,18.2344002 7.49334978,17.8987002 L7.49334978,8.10129981 C7.49334978,7.76529979 7.76544979,7.49319978 8.10114981,7.49319978 L17.8988502,7.49319978 C18.2345502,7.49319978 18.5066502,7.76529979 18.5066502,8.10129981 L18.5066502,17.8987002" id="Facebook" fill="#ABABAB"></path>
                </g>
            </g>
        </g>
    </g>
</svg>