<?xml version="1.0" encoding="UTF-8"?>
<svg width="15px" height="15px" viewBox="0 0 15 15" version="1.1" xmlns="http://www.w3.org/2000/svg" xmlns:xlink="http://www.w3.org/1999/xlink">
    <!-- Generator: Sketch 64 (93537) - https://sketch.com -->
    <title>Com-gris</title>
    <desc>Created with Sketch.</desc>
    <g id="Page-1" stroke="none" stroke-width="1" fill="none" fill-rule="evenodd">
        <g id="Desktop-Share-Item-MW---A4" transform="translate(-1286.000000, -270.000000)">
            <g id="Tracklist" transform="translate(545.624997, 269.000000)">
                <g id="Group-18" transform="translate(740.375003, 1.000000)">
                    <g id="Com-rouge" transform="translate(0.000000, 0.000000)">
                        <path d="M-3.55271368e-15,7.43228595 C-3.55271368e-15,8.87005697 0.40876803,10.258533 1.18441233,11.4590826 L0.152710741,14.5548095 C0.0662282735,14.8142569 0.309460213,15.0655923 0.572289425,14.9845236 L3.88560571,13.9649813 C4.96866025,14.5541349 6.19157422,14.8642611 7.43207873,14.8642611 C11.5393041,14.8642611 14.864209,11.5400475 14.864209,7.43213028 C14.864209,3.32421308 11.5399959,0 7.43207873,0 C3.32490529,0.000155668441 -3.55271368e-15,3.32436875 -3.55271368e-15,7.43228595 Z" id="Fill-4" fill="#FF5353" fill-rule="evenodd"></path>
                        <line x1="7.43210451" y1="4.3157959" x2="7.43210451" y2="10.6842041" id="Path-3" stroke="#FFFFFF" stroke-width="0.7" stroke-linecap="round" stroke-linejoin="round"></line>
                        <line x1="7.43210451" y1="4.3157959" x2="7.43210451" y2="10.6842041" id="Path-3" stroke="#FFFFFF" stroke-width="0.7" stroke-linecap="round" stroke-linejoin="round" transform="translate(7.432105, 7.500000) rotate(-90.000000) translate(-7.432105, -7.500000) "></line>
                    </g>
                </g>
            </g>
        </g>
    </g>
</svg>