<?xml version="1.0" encoding="UTF-8"?>
<svg width="21px" height="12px" viewBox="0 0 21 12" version="1.1" xmlns="http://www.w3.org/2000/svg" xmlns:xlink="http://www.w3.org/1999/xlink">
    <!-- Generator: Sketch 64 (93537) - https://sketch.com -->
    <title>icons / icon_back</title>
    <desc>Created with Sketch.</desc>
    <g id="Symbols" stroke="none" stroke-width="1" fill="none" fill-rule="evenodd">
        <g id="Tapbar-Pause" transform="translate(-649.000000, -38.000000)" fill="#51596D" fill-rule="nonzero">
            <g id="Group-2">
                <g id="icons-/-icon_back" transform="translate(649.674012, 38.936598)">
                    <path d="M8.35217391,0.106177335 C7.82304348,-0.0434872611 7.26347826,0.0399909997 6.85956522,0.31815249 L0.640434783,4.62056243 C-0.0891304348,5.12322081 -0.0769565217,5.93564317 0.652608696,6.4385997 L6.90217391,10.7416059 C7.30608696,11.0194693 7.82086957,11.1032457 8.35,10.9532829 C8.87826087,10.8036183 9.13043478,10.4500283 9.13043478,10.0579786 L9.13043478,1.00148168 C9.13,0.609431994 8.88173913,0.255245658 8.35217391,0.106177335 Z" id="Path"></path>
                    <path d="M19.1756522,0.0733823041 C18.6469565,-0.0762822922 18.0634783,0.00719596867 17.66,0.285357459 L11.4286957,4.58806553 C10.6995652,5.09072392 10.7056522,5.90284814 11.4352174,6.4061028 L17.6817391,10.7085127 C18.086087,10.9863761 18.6456522,11.0701525 19.1752174,10.9204879 C19.7034783,10.7705252 20,10.4172332 20,10.0248854 L20,0.968984789 C19.9995652,0.576338826 19.7047826,0.2230469 19.1756522,0.0733823041 Z" id="Path"></path>
                </g>
            </g>
        </g>
    </g>
</svg>