<?xml version="1.0" encoding="UTF-8"?>
<svg width="40px" height="40px" viewBox="0 0 40 40" version="1.1" xmlns="http://www.w3.org/2000/svg" xmlns:xlink="http://www.w3.org/1999/xlink">
    <!-- Generator: Sketch 64 (93537) - https://sketch.com -->
    <title>Group 25</title>
    <desc>Created with Sketch.</desc>
    <defs>
        <circle id="path-1" cx="13.0000005" cy="13.0000005" r="13.0000005"></circle>
        <filter x="-42.3%" y="-38.5%" width="184.6%" height="184.6%" filterUnits="objectBoundingBox" id="filter-2">
            <feMorphology radius="0.5" operator="dilate" in="SourceAlpha" result="shadowSpreadOuter1"></feMorphology>
            <feOffset dx="0" dy="1" in="shadowSpreadOuter1" result="shadowOffsetOuter1"></feOffset>
            <feGaussianBlur stdDeviation="3" in="shadowOffsetOuter1" result="shadowBlurOuter1"></feGaussianBlur>
            <feColorMatrix values="0 0 0 0 0   0 0 0 0 0   0 0 0 0 0  0 0 0 0.1 0" type="matrix" in="shadowBlurOuter1"></feColorMatrix>
        </filter>
    </defs>
    <g id="Page-1" stroke="none" stroke-width="1" fill="none" fill-rule="evenodd">
        <g id="Desktop-Share-Item-MW---A1" transform="translate(-1353.000000, -44.000000)">
            <g id="Group-25" transform="translate(1359.624997, 50.000000)">
                <g id="Group-3">
                    <g id="Oval">
                        <use fill="black" fill-opacity="1" filter="url(#filter-2)" xlink:href="#path-1"></use>
                        <use fill="#FFFFFF" fill-rule="evenodd" xlink:href="#path-1"></use>
                    </g>
                </g>
                <g id="Group-11" transform="translate(7.000000, 7.000000)" fill="#51596D">
                    <polygon id="Fill-1" points="5.45715169 9.32587341e-15 6.45675173 9.32587341e-15 6.45675173 5.96010024 5.45715169 5.96010024"></polygon>
                    <path d="M10.1998519,1.74840007 L9.49086185,2.4515401 C10.4283619,3.37848013 10.9568719,4.64178018 10.9580419,5.96124024 C10.9580419,7.74717031 10.0041319,9.39834037 8.45727181,10.2914404 C6.91041175,11.1844204 5.00487168,11.1844204 3.45807162,10.2914404 C1.91121155,9.39846037 0.957301516,7.74729031 0.957301516,5.96124024 C0.958474516,4.64172018 1.48698154,3.37842013 2.42448157,2.4515401 L1.71549155,1.74840007 C0.31980149,3.16872013 -0.277858533,5.18910021 0.121741482,7.13910028 C0.520171498,9.08910036 1.86432155,10.7121004 3.70524162,11.4693005 C5.5462517,12.2263205 7.64274178,12.0177305 9.29874185,10.9126504 C10.9534219,9.80757039 11.950682,7.95132032 11.957732,5.96145024 C11.957732,4.37826017 11.3249119,2.86185011 10.1999119,1.74855007 L10.1998519,1.74840007 Z" id="Fill-2"></path>
                </g>
            </g>
        </g>
    </g>
</svg>