<?xml version="1.0" encoding="UTF-8"?>
<svg width="12px" height="12px" viewBox="0 0 12 12" version="1.1" xmlns="http://www.w3.org/2000/svg" xmlns:xlink="http://www.w3.org/1999/xlink">
    <!-- Generator: Sketch 64 (93537) - https://sketch.com -->
    <title>Fill 1</title>
    <desc>Created with Sketch.</desc>
    <g id="Page-1" stroke="none" stroke-width="1" fill="none" fill-rule="evenodd">
        <g id="Desktop-Share-Item-MW---B" transform="translate(-512.000000, -529.000000)" stroke="#FF5353" stroke-width="0.5">
            <path d="M522.672101,535.556391 L514.336796,540.325049 C513.771142,540.647107 512.954832,540.326657 513.001952,539.822942 L513.099221,530.131846 C513.102215,529.628134 513.923768,529.367711 514.449024,529.682266 L522.705604,534.631453 C523.114133,534.875798 523.092431,535.329138 522.671934,535.556349 L522.672101,535.556391 Z" id="Fill-1"></path>
        </g>
    </g>
</svg>