<?xml version="1.0" encoding="UTF-8"?>
<svg width="19px" height="14px" viewBox="0 0 19 14" version="1.1" xmlns="http://www.w3.org/2000/svg" xmlns:xlink="http://www.w3.org/1999/xlink">
    <!-- Generator: Sketch 64 (93537) - https://sketch.com -->
    <title>shuffler-gris-fonce copy</title>
    <desc>Created with Sketch.</desc>
    <g id="Page-1" stroke="none" stroke-width="1" fill="none" fill-rule="evenodd">
        <g id="Artboard" transform="translate(-1.000000, -1.000000)" fill="#EB4C56" fill-rule="nonzero" stroke="#EB4C56" stroke-width="0.2">
            <g id="shuffler-rouge" transform="translate(1.500000, 2.000000)">
                <path d="M15.3546246,0.00227192293 C15.1195773,0.0258526071 14.9210236,0.189402344 14.853333,0.416087712 C14.7856308,0.642021397 14.8609401,0.88772087 15.0442667,1.0368114 L16.1457372,1.95573561 L13.0786319,1.95573561 C13.058093,1.95497497 13.0383156,1.95497497 13.0177767,1.95573561 C12.8930244,1.96942794 12.7751151,2.0226764 12.683063,2.10787377 L10.151484,4.44471587 C10.0290121,4.5474084 9.95294984,4.69575113 9.94305721,4.85549377 C9.93240744,5.01447887 9.98793821,5.17194113 10.0959568,5.28909482 C10.2047348,5.40700213 10.3568652,5.4747024 10.5166273,5.47774613 C10.6763719,5.48002806 10.8307963,5.41689087 10.9426142,5.30278677 L13.3037984,3.12407098 L16.1395563,3.12407098 L15.0441615,4.03689992 C14.9072382,4.12894424 14.8151899,4.27500466 14.7916073,4.43854466 C14.7680247,4.60208466 14.8144285,4.76792255 14.9201648,4.89496887 C15.025901,5.02201519 15.1803137,5.09883887 15.3453922,5.10567413 C15.5104628,5.1125205 15.6709727,5.0493835 15.7865879,4.93147619 L18.12343,2.98410777 C18.2557907,2.8730474 18.3318569,2.70948987 18.3318569,2.53681671 C18.3318569,2.36414355 18.2557888,2.20058408 18.12343,2.08952566 L15.7865879,0.142157239 C15.6671597,0.0394647124 15.5112106,-0.0115018139 15.3545058,0.00219013346 L15.3546246,0.00227192293 Z M0.554624627,1.95567719 C0.399442732,1.96404483 0.254145679,2.03326813 0.150701469,2.14813171 C0.0464861002,2.26375671 -0.00752221554,2.4151354 0.000845626565,2.57032119 C0.00845243709,2.72550308 0.0784365739,2.87080013 0.193300153,2.97424434 C0.308925153,3.07845971 0.460303837,3.13246803 0.615489627,3.12410019 L4.47984752,3.12410019 L12.683137,10.7554476 C12.7903942,10.8558578 12.9318744,10.9129098 13.0786865,10.9136712 L16.1397549,10.9136712 L15.0443602,11.8265002 C14.9074368,11.9185445 14.8153886,12.0646049 14.7918059,12.2281449 C14.7682233,12.3916849 14.8146272,12.5575228 14.9203634,12.6845691 C15.0260997,12.8116154 15.1805124,12.8884391 15.3455908,12.8952744 C15.5106614,12.9021208 15.6711713,12.8389838 15.7867866,12.7210764 L18.1236287,10.773708 C18.2559894,10.6626477 18.3320555,10.4990901 18.3320555,10.326417 C18.3320555,10.1537438 18.2559874,9.99018434 18.1236287,9.87912592 L15.7867866,7.9317575 C15.6673584,7.82906498 15.5114092,7.77809845 15.3547045,7.7917904 C15.1196571,7.81537108 14.9211034,7.97892082 14.8534129,8.20560619 C14.7857107,8.43153987 14.8610199,8.67723934 15.0443465,8.82632987 L16.145817,9.74525408 L13.3100592,9.74525408 L5.10073284,2.10786987 C4.99271426,2.00974003 4.85123599,1.95497029 4.70518336,1.95573171 L0.615709679,1.95573171 C0.595170784,1.95497107 0.575393311,1.95497107 0.554854416,1.95573171 L0.554624627,1.95567719 Z M7.18775094,7.40227192 C7.05767257,7.41444298 6.93519673,7.47073361 6.84088568,7.56049561 L4.47366463,9.74524824 L0.615538311,9.74524824 C0.458835521,9.74296612 0.3082241,9.80382119 0.197165679,9.91336066 C0.0853438897,10.0229001 0.0229677318,10.1727501 0.0229677318,10.3294549 C0.0229677318,10.4861596 0.0853438897,10.6360096 0.197165679,10.7455491 C0.308226048,10.8550886 0.458853048,10.9159438 0.615538311,10.9136615 L4.70501199,10.9136615 C4.85182605,10.9129009 4.99331989,10.855848 5.10056147,10.7554378 L7.63214042,8.41859571 C7.81927084,8.25048329 7.87783989,7.98119729 7.77667215,7.74994729 C7.67625999,7.51945677 7.43892057,7.3794994 7.18790478,7.40230308 L7.18775094,7.40227192 Z" id="Shape"></path>
            </g>
        </g>
    </g>
</svg>