<?xml version="1.0" encoding="UTF-8"?>
<svg width="5px" height="18px" viewBox="0 0 5 18" version="1.1" xmlns="http://www.w3.org/2000/svg" xmlns:xlink="http://www.w3.org/1999/xlink">
    <!-- Generator: Sketch 64 (93537) - https://sketch.com -->
    <title>etc gris</title>
    <desc>Created with Sketch.</desc>
    <g id="Page-1" stroke="none" stroke-width="1" fill="none" fill-rule="evenodd">
        <g id="Desktop-Share-Item-MW---A4" transform="translate(-1404.000000, -317.000000)" fill="#D3D3D3">
            <g id="Group-9" transform="translate(1166.999997, 288.500000)">
                <g id="etc-gris" transform="translate(239.250005, 37.950001) rotate(-270.000000) translate(-239.250005, -37.950001) translate(230.450005, 35.200001)">
                    <g id="Group">
                        <path d="M2.2864438,3.02868848e-14 C1.04599815,3.02868848e-14 -3.32178736e-14,1.04594002 -3.32178736e-14,2.2864438 C-3.32178736e-14,3.56550383 1.04594002,4.5728876 2.2864438,4.5728876 C3.56550383,4.5728876 4.5728876,3.52694758 4.5728876,2.2864438 C4.5728876,1.04599815 3.56478695,3.02868848e-14 2.2864438,3.02868848e-14 Z" id="Fill-1"></path>
                        <path d="M14.7635566,3.02868848e-14 C13.4844965,3.02868848e-14 12.4771128,1.04594002 12.4771128,2.2864438 C12.4771128,3.56550383 13.5230528,4.5728876 14.7635566,4.5728876 C16.0032466,4.5728876 17.0500004,3.56554258 17.0500004,2.2864438 C17.0500004,1.04599815 16.0040603,3.02868848e-14 14.7635566,3.02868848e-14 Z" id="Fill-2"></path>
                        <path d="M8.64163769,3.02868848e-14 C7.36257766,3.02868848e-14 6.35519389,1.04594002 6.35519389,2.2864438 C6.35519389,3.56550383 7.40113391,4.5728876 8.64163769,4.5728876 C9.92069772,4.5728876 10.9280815,3.52694758 10.9280815,2.2864438 C10.9273239,1.04599815 9.91998084,3.02868848e-14 8.64163769,3.02868848e-14 Z" id="Fill-3"></path>
                    </g>
                </g>
            </g>
        </g>
    </g>
</svg>